.............
----------------------------------------------------------------------
Ran 13 tests in 0.134s

OK
Name             Stmts   Miss Branch BrPart  Cover   Missing
------------------------------------------------------------
Collatz.py          48      0     22      0   100%
TestCollatz.py      60      0      0      0   100%
------------------------------------------------------------
TOTAL              108      0     22      0   100%
